%YAML 1.1
%TAG !u! tag:unity3d.com,2011:
--- !u!181963792 &2655988077585873504
Preset:
  m_ObjectHideFlags: 0
  m_CorrespondingSourceObject: {fileID: 0}
  m_PrefabInstance: {fileID: 0}
  m_PrefabAsset: {fileID: 0}
  m_Name: Light_Directional
  m_TargetType:
    m_NativeTypeID: 108
    m_ManagedTypePPtr: {fileID: 0}
    m_ManagedTypeFallback: 
  m_Properties:
  - target: {fileID: 0}
    propertyPath: m_Enabled
    value: 1
    objectReference: {fileID: 0}
  - target: {fileID: 0}
    propertyPath: m_Type
    value: 1
    objectReference: {fileID: 0}
  - target: {fileID: 0}
    propertyPath: m_Shape
    value: 0
    objectReference: {fileID: 0}
  - target: {fileID: 0}
    propertyPath: m_Color.r
    value: 1
    objectReference: {fileID: 0}
  - target: {fileID: 0}
    propertyPath: m_Color.g
    value: 0.95686275
    objectReference: {fileID: 0}
  - target: {fileID: 0}
    propertyPath: m_Color.b
    value: 0.8392157
    objectReference: {fileID: 0}
  - target: {fileID: 0}
    propertyPath: m_Color.a
    value: 1
    objectReference: {fileID: 0}
  - target: {fileID: 0}
    propertyPath: m_Intensity
    value: 2
    objectReference: {fileID: 0}
  - target: {fileID: 0}
    propertyPath: m_Range
    value: 10
    objectReference: {fileID: 0}
  - target: {fileID: 0}
    propertyPath: m_SpotAngle
    value: 30
    objectReference: {fileID: 0}
  - target: {fileID: 0}
    propertyPath: m_InnerSpotAngle
    value: 21.80208
    objectReference: {fileID: 0}
  - target: {fileID: 0}
    propertyPath: m_CookieSize
    value: 10
    objectReference: {fileID: 0}
  - target: {fileID: 0}
    propertyPath: m_Shadows.m_Type
    value: 2
    objectReference: {fileID: 0}
  - target: {fileID: 0}
    propertyPath: m_Shadows.m_Resolution
    value: -1
    objectReference: {fileID: 0}
  - target: {fileID: 0}
    propertyPath: m_Shadows.m_CustomResolution
    value: -1
    objectReference: {fileID: 0}
  - target: {fileID: 0}
    propertyPath: m_Shadows.m_Strength
    value: 1
    objectReference: {fileID: 0}
  - target: {fileID: 0}
    propertyPath: m_Shadows.m_Bias
    value: 0.02
    objectReference: {fileID: 0}
  - target: {fileID: 0}
    propertyPath: m_Shadows.m_NormalBias
    value: 0.1
    objectReference: {fileID: 0}
  - target: {fileID: 0}
    propertyPath: m_Shadows.m_NearPlane
    value: 0.1
    objectReference: {fileID: 0}
  - target: {fileID: 0}
    propertyPath: m_Shadows.m_CullingMatrixOverride.e00
    value: 1
    objectReference: {fileID: 0}
  - target: {fileID: 0}
    propertyPath: m_Shadows.m_CullingMatrixOverride.e01
    value: 0
    objectReference: {fileID: 0}
  - target: {fileID: 0}
    propertyPath: m_Shadows.m_CullingMatrixOverride.e02
    value: 0
    objectReference: {fileID: 0}
  - target: {fileID: 0}
    propertyPath: m_Shadows.m_CullingMatrixOverride.e03
    value: 0
    objectReference: {fileID: 0}
  - target: {fileID: 0}
    propertyPath: m_Shadows.m_CullingMatrixOverride.e10
    value: 0
    objectReference: {fileID: 0}
  - target: {fileID: 0}
    propertyPath: m_Shadows.m_CullingMatrixOverride.e11
    value: 1
    objectReference: {fileID: 0}
  - target: {fileID: 0}
    propertyPath: m_Shadows.m_CullingMatrixOverride.e12
    value: 0
    objectReference: {fileID: 0}
  - target: {fileID: 0}
    propertyPath: m_Shadows.m_CullingMatrixOverride.e13
    value: 0
    objectReference: {fileID: 0}
  - target: {fileID: 0}
    propertyPath: m_Shadows.m_CullingMatrixOverride.e20
    value: 0
    objectReference: {fileID: 0}
  - target: {fileID: 0}
    propertyPath: m_Shadows.m_CullingMatrixOverride.e21
    value: 0
    objectReference: {fileID: 0}
  - target: {fileID: 0}
    propertyPath: m_Shadows.m_CullingMatrixOverride.e22
    value: 1
    objectReference: {fileID: 0}
  - target: {fileID: 0}
    propertyPath: m_Shadows.m_CullingMatrixOverride.e23
    value: 0
    objectReference: {fileID: 0}
  - target: {fileID: 0}
    propertyPath: m_Shadows.m_CullingMatrixOverride.e30
    value: 0
    objectReference: {fileID: 0}
  - target: {fileID: 0}
    propertyPath: m_Shadows.m_CullingMatrixOverride.e31
    value: 0
    objectReference: {fileID: 0}
  - target: {fileID: 0}
    propertyPath: m_Shadows.m_CullingMatrixOverride.e32
    value: 0
    objectReference: {fileID: 0}
  - target: {fileID: 0}
    propertyPath: m_Shadows.m_CullingMatrixOverride.e33
    value: 1
    objectReference: {fileID: 0}
  - target: {fileID: 0}
    propertyPath: m_Shadows.m_UseCullingMatrixOverride
    value: 0
    objectReference: {fileID: 0}
  - target: {fileID: 0}
    propertyPath: m_Cookie
    value: 
    objectReference: {fileID: 0}
  - target: {fileID: 0}
    propertyPath: m_DrawHalo
    value: 0
    objectReference: {fileID: 0}
  - target: {fileID: 0}
    propertyPath: m_Flare
    value: 
    objectReference: {fileID: 0}
  - target: {fileID: 0}
    propertyPath: m_RenderMode
    value: 0
    objectReference: {fileID: 0}
  - target: {fileID: 0}
    propertyPath: m_CullingMask.m_Bits
    value: 4294967295
    objectReference: {fileID: 0}
  - target: {fileID: 0}
    propertyPath: m_RenderingLayerMask
    value: 1
    objectReference: {fileID: 0}
  - target: {fileID: 0}
    propertyPath: m_Lightmapping
    value: 4
    objectReference: {fileID: 0}
  - target: {fileID: 0}
    propertyPath: m_LightShadowCasterMode
    value: 0
    objectReference: {fileID: 0}
  - target: {fileID: 0}
    propertyPath: m_AreaSize.x
    value: 1
    objectReference: {fileID: 0}
  - target: {fileID: 0}
    propertyPath: m_AreaSize.y
    value: 1
    objectReference: {fileID: 0}
  - target: {fileID: 0}
    propertyPath: m_BounceIntensity
    value: 1
    objectReference: {fileID: 0}
  - target: {fileID: 0}
    propertyPath: m_ColorTemperature
    value: 6570
    objectReference: {fileID: 0}
  - target: {fileID: 0}
    propertyPath: m_UseColorTemperature
    value: 0
    objectReference: {fileID: 0}
  - target: {fileID: 0}
    propertyPath: m_BoundingSphereOverride.x
    value: 0
    objectReference: {fileID: 0}
  - target: {fileID: 0}
    propertyPath: m_BoundingSphereOverride.y
    value: 0
    objectReference: {fileID: 0}
  - target: {fileID: 0}
    propertyPath: m_BoundingSphereOverride.z
    value: 0
    objectReference: {fileID: 0}
  - target: {fileID: 0}
    propertyPath: m_BoundingSphereOverride.w
    value: 0
    objectReference: {fileID: 0}
  - target: {fileID: 0}
    propertyPath: m_UseBoundingSphereOverride
    value: 0
    objectReference: {fileID: 0}
  - target: {fileID: 0}
    propertyPath: m_UseViewFrustumForShadowCasterCull
    value: 1
    objectReference: {fileID: 0}
  - target: {fileID: 0}
    propertyPath: m_ShadowRadius
    value: 0
    objectReference: {fileID: 0}
  - target: {fileID: 0}
    propertyPath: m_ShadowAngle
    value: 0
    objectReference: {fileID: 0}
  m_ExcludedProperties: []
